%YAML 1.1
%TAG !u! tag:unity3d.com,2011:
--- !u!114 &11400000
MonoBehaviour:
  m_ObjectHideFlags: 0
  m_CorrespondingSourceObject: {fileID: 0}
  m_PrefabInstance: {fileID: 0}
  m_PrefabAsset: {fileID: 0}
  m_GameObject: {fileID: 0}
  m_Enabled: 1
  m_EditorHideFlags: 0
  m_Script: {fileID: 11500000, guid: 66e1e837be91a4c2b8b5ecd61b009395, type: 3}
  m_Name: Tree25
  m_EditorClassIdentifier: 
  prefab: {fileID: 1137255902819527642, guid: 3b546bcdedfe3744abbc7e0646047037, type: 3}
  onSky: 0
  inDaytime: 0
  onPath: 0
  isChill: 1
