%YAML 1.1
%TAG !u! tag:unity3d.com,2011:
--- !u!114 &11400000
MonoBehaviour:
  m_ObjectHideFlags: 0
  m_CorrespondingSourceObject: {fileID: 0}
  m_PrefabInstance: {fileID: 0}
  m_PrefabAsset: {fileID: 0}
  m_GameObject: {fileID: 0}
  m_Enabled: 1
  m_EditorHideFlags: 0
  m_Script: {fileID: 11500000, guid: 66e1e837be91a4c2b8b5ecd61b009395, type: 3}
  m_Name: Tree14
  m_EditorClassIdentifier: 
  prefab: {fileID: 462864092602119263, guid: 863e4db16316ba14ebd2a8360b38a496, type: 3}
  onSky: 0
  onGround: 1
  onPath: 0
  outsidePath: 1
  inDaytime: 1
  atNight: 0
  isChill: 0
  isAnxiety: 1
