%YAML 1.1
%TAG !u! tag:unity3d.com,2011:
--- !u!114 &11400000
MonoBehaviour:
  m_ObjectHideFlags: 0
  m_CorrespondingSourceObject: {fileID: 0}
  m_PrefabInstance: {fileID: 0}
  m_PrefabAsset: {fileID: 0}
  m_GameObject: {fileID: 0}
  m_Enabled: 1
  m_EditorHideFlags: 0
  m_Script: {fileID: 11500000, guid: 66e1e837be91a4c2b8b5ecd61b009395, type: 3}
  m_Name: Grass1
  m_EditorClassIdentifier: 
  prefab: {fileID: 6175124192812959440, guid: 5c241ee2e013a4e3ab4dd7c5969134a7, type: 3}
  onSky: 0
  onGround: 1
  onPath: 1
  outsidePath: 1
  inDaytime: 1
  atNight: 1
  isChill: 1
  isAnxiety: 1
